<svg width="30" height="30" viewBox="0 0 30 30" fill="none" xmlns="http://www.w3.org/2000/svg">
<g clip-path="url(#clip0)">
<path d="M29.2909 12.3798L25.9323 11.7183C25.7108 10.9808 25.4148 10.2688 25.0486 9.59084L26.9179 6.7868C27.1502 6.43822 27.1044 5.97404 26.808 5.67764L24.3224 3.19199C24.0262 2.89558 23.5618 2.84958 23.2132 3.08212L20.4092 4.9514C19.7312 4.58519 19.0192 4.28925 18.2817 4.06769L17.6202 0.709076C17.539 0.297089 17.1778 0 16.7578 0H13.2422C12.8222 0 12.461 0.297089 12.3798 0.709076L11.7183 4.06769C10.9808 4.28925 10.2688 4.58519 9.59084 4.9514L6.7868 3.08212C6.43822 2.84981 5.97382 2.89558 5.67764 3.19199L3.19199 5.67764C2.89558 5.97404 2.84981 6.43822 3.08212 6.7868L4.9514 9.59084C4.58519 10.2688 4.28925 10.9808 4.06746 11.7183L0.708847 12.3798C0.297089 12.461 0 12.8222 0 13.2422V16.7578C0 17.1778 0.297089 17.539 0.709076 17.6202L4.06769 18.2817C4.28925 19.0192 4.58519 19.7312 4.9514 20.4092L3.08212 23.2132C2.84981 23.5618 2.89581 24.026 3.19199 24.3224L5.67764 26.808C5.97382 27.1044 6.43822 27.1502 6.7868 26.9179L9.59084 25.0486C10.2688 25.4148 10.9808 25.7108 11.7183 25.9323L12.3798 29.2909C12.461 29.7029 12.8222 30 13.2422 30H16.7578C17.1778 30 17.539 29.7029 17.6202 29.2909L18.2817 25.9323C19.0192 25.7108 19.7312 25.4148 20.4092 25.0486L23.2132 26.9179C23.5618 27.1502 24.026 27.1042 24.3224 26.808L26.808 24.3221C27.1044 24.026 27.1502 23.5618 26.9179 23.2132L25.0486 20.4092C25.4148 19.7312 25.7108 19.0192 25.9323 18.2817L29.2909 17.6202C29.7029 17.539 30 17.1778 30 16.7578V13.2422C30 12.8222 29.7029 12.461 29.2909 12.3798ZM28.2422 16.0352L25.0587 16.6624C24.7238 16.7283 24.4572 16.9823 24.3755 17.3138C24.1422 18.2572 23.7685 19.1572 23.2642 19.9889C23.0873 20.2808 23.0953 20.6483 23.2846 20.9322L25.0557 23.5888L23.5888 25.0557L20.9319 23.2846C20.6483 23.0953 20.2805 23.0875 19.9889 23.2645C19.157 23.7687 18.257 24.1425 17.3138 24.3755C16.9823 24.4574 16.7283 24.7238 16.6621 25.0589L16.0352 28.2422H13.965L13.3379 25.0589C13.2717 24.7238 13.0177 24.4574 12.6862 24.3755C11.743 24.1425 10.843 23.7685 10.0111 23.2642C9.71947 23.0875 9.35165 23.0953 9.06784 23.2846L6.41121 25.0557L4.94431 23.5888L6.71539 20.9322C6.90468 20.6483 6.91246 20.2805 6.73576 19.9889C6.23154 19.1572 5.85777 18.257 5.62454 17.3138C5.5426 16.9823 5.27618 16.7283 4.9411 16.6624L1.75781 16.0352V13.965L4.9411 13.3379C5.27618 13.2717 5.5426 13.0177 5.62454 12.6862C5.85777 11.743 6.23154 10.843 6.73576 10.0111C6.91246 9.71947 6.90468 9.35165 6.71539 9.06784L4.94431 6.41121L6.41121 4.94431L9.06784 6.71539C9.35165 6.90468 9.71947 6.91246 10.0111 6.73576C10.843 6.23154 11.743 5.85777 12.6862 5.62454C13.0177 5.5426 13.2717 5.27618 13.3379 4.9411L13.9648 1.75781H16.035L16.6621 4.9411C16.7283 5.27618 16.9823 5.5426 17.3138 5.62454C18.257 5.85754 19.157 6.23154 19.9889 6.73576C20.2805 6.91246 20.6483 6.90468 20.9322 6.71539L23.5888 4.94431L25.0557 6.41121L23.2846 9.06784C23.0953 9.35165 23.0875 9.71947 23.2642 10.0111C23.7685 10.8428 24.1425 11.743 24.3755 12.6862C24.4572 13.0177 24.7238 13.2717 25.0589 13.3376L28.2422 13.9648V16.0352Z" fill="#2363AD" stroke="white" stroke-width="0.5"/>
<path d="M15 7.08984C10.6384 7.08984 7.08984 10.6384 7.08984 15C7.08984 19.3616 10.6384 22.9102 15 22.9102C19.3616 22.9102 22.9102 19.3616 22.9102 15C22.9102 10.6384 19.3616 7.08984 15 7.08984ZM15 21.1523C11.6075 21.1523 8.84766 18.3925 8.84766 15C8.84766 11.6075 11.6075 8.84766 15 8.84766C18.3925 8.84766 21.1523 11.6075 21.1523 15C21.1523 18.3925 18.3925 21.1523 15 21.1523Z" fill="#2363AD" stroke="white" stroke-width="0.5"/>
<path d="M15 10.6055C12.5768 10.6055 10.6055 12.5768 10.6055 15C10.6055 17.4232 12.5768 19.3945 15 19.3945C17.4232 19.3945 19.3945 17.4232 19.3945 15C19.3945 12.5768 17.4232 10.6055 15 10.6055ZM15 17.6367C13.5461 17.6367 12.3633 16.4539 12.3633 15C12.3633 13.5461 13.5461 12.3633 15 12.3633C16.4539 12.3633 17.6367 13.5461 17.6367 15C17.6367 16.4539 16.4539 17.6367 15 17.6367Z" fill="#2363AD" stroke="white" stroke-width="0.5"/>
</g>
<defs>
<clipPath id="clip0">
<rect width="30" height="30" fill="white"/>
</clipPath>
</defs>
</svg>
