<svg width="30" height="30" viewBox="0 0 30 30" fill="none" xmlns="http://www.w3.org/2000/svg">
<g clip-path="url(#clip0)">
<path d="M4.97402 9.05558H17.1723C17.6552 9.05558 18.0467 8.6641 18.0467 8.18117C18.0467 7.69825 17.6552 7.30676 17.1723 7.30676H4.97402C4.4911 7.30676 4.09961 7.69825 4.09961 8.18117C4.09961 8.6641 4.4911 9.05558 4.97402 9.05558Z" fill="#2363AD"/>
<path d="M4.97402 12.0597H17.1723C17.6552 12.0597 18.0467 11.6682 18.0467 11.1853C18.0467 10.7024 17.6552 10.3109 17.1723 10.3109H4.97402C4.4911 10.3109 4.09961 10.7024 4.09961 11.1853C4.09961 11.6682 4.4911 12.0597 4.97402 12.0597Z" fill="#2363AD"/>
<path d="M11.427 22.3271H4.97402C4.4911 22.3271 4.09961 22.7186 4.09961 23.2016C4.09961 23.6845 4.4911 24.076 4.97402 24.076H11.4269C11.9098 24.076 12.3013 23.6845 12.3013 23.2016C12.3013 22.7186 11.91 22.3271 11.427 22.3271Z" fill="#2363AD"/>
<path d="M29.5754 2.6121L27.0046 1.06964C26.8058 0.950344 26.5677 0.914743 26.3427 0.97108C26.1177 1.02729 25.9242 1.1707 25.805 1.36944L21.3294 8.82865V3.54222C21.3294 3.0593 20.9379 2.66781 20.4549 2.66781H0.87441C0.391486 2.66781 0 3.0593 0 3.54222V28.1806C0 28.6635 0.391486 29.055 0.87441 29.055H20.4549C20.9379 29.055 21.3294 28.6635 21.3294 28.1806V18.0547L29.8753 3.81179C30.1238 3.39769 29.9895 2.86068 29.5754 2.6121ZM18.2828 19.7332L16.8316 20.9377L17.2116 19.0905L25.6 5.11029L26.6711 5.75298L18.2828 19.7332ZM27.5709 4.25336L26.4997 3.61067L26.8547 3.01907L27.9259 3.66176L27.5709 4.25336ZM1.74882 27.3062V4.41663H19.5805V11.7433L18.0362 14.3171C18.0423 14.2752 18.0466 14.2329 18.0466 14.1894C18.0466 13.7065 17.6551 13.315 17.1722 13.315H4.97389C4.49097 13.315 4.09948 13.7065 4.09948 14.1894C4.09948 14.6723 4.49097 15.0638 4.97389 15.0638H17.1722C17.3669 15.0638 17.546 14.9994 17.6913 14.8918L16.8349 16.3191H4.97389C4.49097 16.3191 4.09948 16.7106 4.09948 17.1935C4.09948 17.6764 4.49097 18.0679 4.97389 18.0679H15.7856L15.6352 18.3185C15.5845 18.4031 15.5484 18.4956 15.5285 18.5922L15.3782 19.3231H4.97389C4.49097 19.3231 4.09948 19.7146 4.09948 20.1975C4.09948 20.6804 4.49097 21.0719 4.97389 21.0719H15.0185L14.6166 23.0254C14.5418 23.3891 14.7048 23.7603 15.0232 23.9514C15.1624 24.0349 15.318 24.0761 15.4731 24.0761C15.6725 24.0761 15.8709 24.008 16.0317 23.8745L19.5143 20.9837C19.5382 20.9638 19.5589 20.9407 19.5805 20.9186V27.3062H1.74882Z" fill="#2363AD"/>
</g>
<defs>
<clipPath id="clip0">
<rect width="30" height="30" fill="white"/>
</clipPath>
</defs>
</svg>
