<svg width="30" height="30" viewBox="0 0 30 30" fill="none" xmlns="http://www.w3.org/2000/svg">
<path d="M11.2344 30H7.46875C6.98336 30 6.58984 29.6065 6.58984 29.1211V26.2344H4.64453C4.15914 26.2344 3.76562 25.8408 3.76562 25.3554V21.5898C3.76562 21.1044 4.15914 20.7109 4.64453 20.7109H6.58984V18.7031H4.64453C4.15914 18.7031 3.76562 18.3096 3.76562 17.8242V14.0586C3.76562 13.5732 4.15914 13.1797 4.64453 13.1797H6.58984V0.878906C6.58984 0.393516 6.98336 0 7.46875 0H16.8828C22.0393 0 26.2344 4.19508 26.2344 9.35156C26.2344 14.5162 22.0562 18.7031 16.8828 18.7031H12.1133V20.711H17.8243C18.3097 20.711 18.7032 21.1045 18.7032 21.5899V25.3555C18.7032 25.8409 18.3097 26.2344 17.8243 26.2344H12.1133V29.1211C12.1133 29.6065 11.7198 30 11.2344 30ZM8.34771 28.2422H10.3555V25.3554C10.3555 24.8701 10.7491 24.4765 11.2345 24.4765H16.9454V22.4687H11.2344C10.749 22.4687 10.3555 22.0752 10.3555 21.5898V17.8242C10.3555 17.3388 10.749 16.9453 11.2344 16.9453H16.8828C21.0766 16.9453 24.4766 13.5524 24.4766 9.35156C24.4766 5.16434 21.0701 1.75781 16.8828 1.75781H8.34771V14.0586C8.34771 14.544 7.9542 14.9375 7.46881 14.9375H5.5235V16.9453H7.46881C7.9542 16.9453 8.34771 17.3388 8.34771 17.8242V21.5899C8.34771 22.0753 7.9542 22.4688 7.46881 22.4688H5.5235V24.4766H7.46881C7.9542 24.4766 8.34771 24.8701 8.34771 25.3555V28.2422Z" fill="#2363AD"/>
<path d="M16.8828 14.9375H11.2344C10.749 14.9375 10.3555 14.5439 10.3555 14.0586V4.64453C10.3555 4.15914 10.749 3.76562 11.2344 3.76562H16.8828C19.9628 3.76562 22.4687 6.2715 22.4687 9.35154C22.4687 12.4316 19.9628 14.9375 16.8828 14.9375ZM12.1132 13.1796H16.8827C18.9935 13.1796 20.7108 11.4624 20.7108 9.35154C20.7108 7.2407 18.9935 5.52344 16.8827 5.52344H12.1132V13.1796Z" fill="#2363AD"/>
</svg>
