<svg width="50" height="50" viewBox="0 0 50 50" fill="none" xmlns="http://www.w3.org/2000/svg">
<path d="M22.1128 5.56533C22.1128 5.98008 22.449 6.31632 22.8638 6.31632C23.2785 6.31632 23.6148 5.98008 23.6148 5.56533C23.6148 4.82675 24.2157 4.22586 24.9542 4.22586C25.6928 4.22586 26.2937 4.82675 26.2937 5.56533C26.2937 5.98008 26.63 6.31632 27.0447 6.31632C27.4594 6.31632 27.7957 5.98008 27.7957 5.56533C27.7957 3.99856 26.521 2.72388 24.9542 2.72388C23.3875 2.72388 22.1128 3.99846 22.1128 5.56533Z" fill="#2363AD"/>
<path d="M20.1397 6.31634C20.5544 6.31634 20.8907 5.98009 20.8907 5.56535C20.8907 3.32479 22.7135 1.50198 24.954 1.50198C27.1946 1.50198 29.0174 3.32479 29.0174 5.56535C29.0174 5.98009 29.3536 6.31634 29.7684 6.31634C30.1831 6.31634 30.5194 5.98009 30.5194 5.56535C30.5194 2.4966 28.0228 0 24.954 0C21.8853 0 19.3887 2.4966 19.3887 5.56535C19.3887 5.98009 19.7249 6.31634 20.1397 6.31634Z" fill="#2363AD"/>
<path d="M44.0454 18.5077C44.4601 18.5077 44.7964 18.1715 44.7964 17.7568V8.44496C44.7964 8.03021 44.4601 7.69397 44.0454 7.69397H16.3291C15.9143 7.69397 15.5781 8.03021 15.5781 8.44496C15.5781 8.85971 15.9143 9.19595 16.3291 9.19595H43.2944V17.0058H6.79811V12.6278C6.79811 10.7355 8.33764 9.19595 10.2299 9.19595H13.3143C13.7291 9.19595 14.0653 8.85971 14.0653 8.44496C14.0653 8.03021 13.7291 7.69397 13.3143 7.69397H10.2299C7.50944 7.69397 5.29612 9.90729 5.29612 12.6278V17.7568C5.29612 18.1715 5.63237 18.5077 6.04711 18.5077H8.89718V21.5276H6.04711C5.63237 21.5276 5.29612 21.8639 5.29612 22.2786V31.5904C5.29612 32.0052 5.63237 32.3414 6.04711 32.3414H8.89718V35.3613H5.95509C5.54035 35.3613 5.2041 35.6975 5.2041 36.1123V45.4241C5.2041 45.8388 5.54035 46.1751 5.95509 46.1751H8.89708V49.2489C8.89708 49.6637 9.23332 49.9999 9.64807 49.9999H13.5511C13.9659 49.9999 14.3021 49.6637 14.3021 49.2489V46.1751H36.202V49.2489C36.202 49.6637 36.5383 49.9999 36.953 49.9999H40.8561C41.2708 49.9999 41.6071 49.6637 41.6071 49.2489V46.0786C43.3771 45.6823 44.7043 44.0996 44.7043 42.2118V36.1124C44.7043 35.6976 44.3681 35.3614 43.9533 35.3614H41.6072V32.3415H44.0454C44.4601 32.3415 44.7964 32.0053 44.7964 31.5905V22.2787C44.7964 21.864 44.4601 21.5277 44.0454 21.5277H41.6072V18.5078H44.0454V18.5077ZM10.3991 18.5077H12.8001V21.5276H10.3991V18.5077ZM10.3991 32.3415H12.8001V35.3614H10.3991V32.3415ZM12.8002 48.498H10.3992V46.1752H12.8002V48.498ZM37.704 48.498V46.1752H40.1051V48.498H37.704ZM43.2025 42.2118C43.2025 43.569 42.0983 44.6732 40.741 44.6732H6.70608V36.8634H23.6774C24.0921 36.8634 24.4284 36.5271 24.4284 36.1124C24.4284 35.6976 24.0921 35.3614 23.6774 35.3614H14.3022V32.3415H36.202V35.3614H26.7427C26.328 35.3614 25.9917 35.6976 25.9917 36.1124C25.9917 36.5271 26.328 36.8634 26.7427 36.8634H43.2024V42.2118H43.2025ZM40.1052 35.3614H37.704V32.3415H40.1051V35.3614H40.1052ZM43.2944 30.8395H6.79811V23.0297H43.2944V30.8395ZM37.704 21.5276V18.5215H40.1051V21.5276H37.704ZM36.202 21.5276H14.3022V18.5077H36.202V21.5276Z" fill="#2363AD"/>
<path d="M39.6725 14.503C40.3178 14.503 40.841 13.9799 40.841 13.3345C40.841 12.6891 40.3178 12.166 39.6725 12.166C39.0271 12.166 38.5039 12.6891 38.5039 13.3345C38.5039 13.9799 39.0271 14.503 39.6725 14.503Z" fill="#2363AD"/>
<path d="M35.0226 14.503C35.6679 14.503 36.1911 13.9799 36.1911 13.3345C36.1911 12.6891 35.6679 12.166 35.0226 12.166C34.3772 12.166 33.854 12.6891 33.854 13.3345C33.854 13.9799 34.3772 14.503 35.0226 14.503Z" fill="#2363AD"/>
<path d="M30.3726 14.503C31.018 14.503 31.5412 13.9799 31.5412 13.3345C31.5412 12.6891 31.018 12.166 30.3726 12.166C29.7273 12.166 29.2041 12.6891 29.2041 13.3345C29.2041 13.9799 29.7273 14.503 30.3726 14.503Z" fill="#2363AD"/>
<path d="M39.6725 42.1705C40.3178 42.1705 40.841 41.6473 40.841 41.0019C40.841 40.3565 40.3178 39.8334 39.6725 39.8334C39.0271 39.8334 38.5039 40.3565 38.5039 41.0019C38.5039 41.6473 39.0271 42.1705 39.6725 42.1705Z" fill="#2363AD"/>
<path d="M35.0226 42.1705C35.6679 42.1705 36.1911 41.6473 36.1911 41.0019C36.1911 40.3565 35.6679 39.8334 35.0226 39.8334C34.3772 39.8334 33.854 40.3565 33.854 41.0019C33.854 41.6473 34.3772 42.1705 35.0226 42.1705Z" fill="#2363AD"/>
<path d="M30.3726 42.1705C31.018 42.1705 31.5412 41.6473 31.5412 41.0019C31.5412 40.3565 31.018 39.8334 30.3726 39.8334C29.7273 39.8334 29.2041 40.3565 29.2041 41.0019C29.2041 41.6473 29.7273 42.1705 30.3726 42.1705Z" fill="#2363AD"/>
<path d="M29.2955 28.3367C29.9409 28.3367 30.464 27.8135 30.464 27.1682C30.464 26.5228 29.9409 25.9996 29.2955 25.9996C28.6501 25.9996 28.127 26.5228 28.127 27.1682C28.127 27.8135 28.6501 28.3367 29.2955 28.3367Z" fill="#2363AD"/>
<path d="M24.6456 28.3367C25.291 28.3367 25.8141 27.8135 25.8141 27.1682C25.8141 26.5228 25.291 25.9996 24.6456 25.9996C24.0002 25.9996 23.4771 26.5228 23.4771 27.1682C23.4771 27.8135 24.0002 28.3367 24.6456 28.3367Z" fill="#2363AD"/>
<path d="M19.9957 28.3367C20.6411 28.3367 21.1642 27.8135 21.1642 27.1682C21.1642 26.5228 20.6411 25.9996 19.9957 25.9996C19.3503 25.9996 18.8271 26.5228 18.8271 27.1682C18.8271 27.8135 19.3503 28.3367 19.9957 28.3367Z" fill="#2363AD"/>
</svg>
