<svg width="50" height="50" viewBox="0 0 50 50" fill="none" xmlns="http://www.w3.org/2000/svg">
<g clip-path="url(#clip0)">
<path d="M25.8181 38.3664L18.7091 45.4754C16.8171 47.3674 14.3015 48.4093 11.6259 48.4093C8.95016 48.4093 6.43451 47.3674 4.54261 45.4754C0.636871 41.5696 0.636871 35.2146 4.54261 31.3089L17.9258 17.9257C19.8178 16.0336 22.3334 14.9917 25.0091 14.9917C27.6848 14.9917 30.2003 16.0336 32.0923 17.9257C33.1961 19.0294 34.027 20.378 34.5154 21.8479L28.1817 28.1816C27.3295 29.0338 26.1964 29.5032 24.9912 29.5032C23.786 29.5032 22.6528 29.0338 21.8006 28.1816C21.3707 27.7516 21.038 27.2501 20.8116 26.6908C20.6462 26.2822 20.181 26.0851 19.7724 26.2504C19.3638 26.4158 19.1667 26.8811 19.3321 27.2896C19.6393 28.0484 20.0901 28.7282 20.6721 29.3102C21.8258 30.4638 23.3598 31.0992 24.9913 31.0992C26.6228 31.0992 28.1568 30.4638 29.3104 29.3102L42.6934 15.927C43.8472 14.7734 44.4826 13.2394 44.4826 11.6079C44.4826 9.97637 43.8472 8.44242 42.6934 7.28876C41.5398 6.13511 40.0059 5.49976 38.3743 5.49976C36.7428 5.49976 35.2088 6.13511 34.0552 7.28876L29.8295 11.5145C29.5178 11.8261 29.5178 12.3315 29.8295 12.643C30.1411 12.9547 30.6465 12.9547 30.958 12.643L35.1837 8.41731C36.0359 7.5651 37.1691 7.09574 38.3742 7.09574C39.5794 7.09574 40.7126 7.5651 41.5647 8.4172C42.4169 9.26951 42.8862 10.4025 42.8862 11.6078C42.8862 12.813 42.4169 13.9461 41.5647 14.7984L35.7561 20.607C35.1745 19.1892 34.3129 17.8894 33.2206 16.7971C28.6926 12.269 21.325 12.269 16.797 16.7971L3.41407 30.1803C-1.11393 34.7083 -1.11393 42.0759 3.41407 46.604C5.67807 48.868 8.65201 50.0001 11.6259 50.0001C14.5998 50.0001 17.5737 48.8681 19.8377 46.604L26.9467 39.495C27.2584 39.1834 27.2584 38.678 26.9467 38.3665C26.6351 38.0547 26.1297 38.0547 25.8181 38.3664Z" fill="#fff"/>
<path d="M46.5862 3.39604C42.0582 -1.13207 34.6904 -1.13196 30.1625 3.39604L23.0447 10.514C22.733 10.8256 22.733 11.331 23.0447 11.6425C23.3563 11.9542 23.8617 11.9542 24.1732 11.6425L31.2911 4.52459C35.197 0.618844 41.552 0.618844 45.4576 4.52459C49.3634 8.43033 49.3634 14.7853 45.4576 18.6911L32.0744 32.0743C30.1824 33.9663 27.6669 35.0082 24.9912 35.0082C22.3155 35.0082 19.7999 33.9663 17.9079 32.0743C16.804 30.9703 15.9734 29.6221 15.4848 28.1521L21.8185 21.8184C22.6707 20.9662 23.8038 20.4969 25.0089 20.4969C26.2141 20.4969 27.3472 20.9662 28.1995 21.8184C28.6295 22.2483 28.9622 22.7498 29.1887 23.3092C29.354 23.7178 29.8194 23.9148 30.2278 23.7495C30.6364 23.5841 30.8335 23.1188 30.6681 22.7103C30.361 21.9516 29.9101 21.2717 29.3281 20.6898C28.1743 19.5361 26.6405 18.9008 25.0089 18.9008C23.3774 18.9008 21.8435 19.5361 20.6898 20.6898L14.1661 27.2136C14.0487 27.2829 13.953 27.3799 13.8858 27.4938L7.30669 34.0729C6.15293 35.2266 5.51758 36.7605 5.51758 38.392C5.51758 40.0236 6.15293 41.5575 7.30669 42.7112C8.46034 43.8648 9.99419 44.5002 11.6257 44.5002C13.2572 44.5002 14.7912 43.8648 15.9448 42.7112L20.1644 38.4916C20.476 38.18 20.476 37.6747 20.1644 37.3631C19.8527 37.0514 19.3474 37.0514 19.0358 37.3631L14.8163 41.5826C13.9641 42.4348 12.831 42.9042 11.6257 42.9042C10.4205 42.9042 9.28744 42.4348 8.43523 41.5827C7.58303 40.7304 7.11367 39.5974 7.11367 38.3922C7.11367 37.1869 7.58303 36.0539 8.43523 35.2016L14.2437 29.3931C14.8253 30.8108 15.6867 32.1104 16.7792 33.2029C18.9726 35.3964 21.889 36.6044 24.991 36.6044C28.093 36.6044 31.0094 35.3964 33.2027 33.2029L46.586 19.8197C51.1142 15.2916 51.1142 7.92405 46.5862 3.39604Z" fill="#fff"/>
</g>
<defs>
<clipPath id="clip0">
<rect width="50" height="50" fill="white"/>
</clipPath>
</defs>
</svg>
